ritis introduction • rOpenSci: ritis
…
Get common names for a TSN

common_names(tsn = 183833)
#> # A tibble: 3 x 3
#>   commonName          language tsn   
#>   <chr>               <chr>    <chr> 
#> 1 African hunting dog English  183833
#> 2 African Wild Dog    English  183833
#> 3 Painted Hunting Dog English  183833

Full hierarchy for a TSN

hierarchy_full(tsn = 37906)
#> # A tibble: 60 x 5
#>    parentname        parenttsn rankname      taxonname       tsn   
#>    <chr>             <chr>     <chr>         <chr>           <chr> 
#>  1 ""                ""        Kingdom       Plantae         202422
#>  2 "Plantae"         "202422"  Subkingdom    Viridiplantae   954898
#>  3 "Viridiplantae"   "954898"  Infrakingdom  Streptophyta    846494
#>  4 "Streptophyta"    "846494"  Superdivision Embryophyta     954900
#>  5 "Embryophyta"     "954900"  Division      Tracheophyta    846496
#>  6 "Tracheophyta"    "846496"  Subdivision   Spermatophytina 846504
#>  7 "Spermatophytina" "846504"  Class         Magnoliopsida   18063 
#>  8 "Magnoliopsida"   "18063"   Superorder    Asteranae       846535
#>  9 "Asteranae"       "846535"  Order         Asterales       35419 
#> 10 "Asterales"       "35419"   Family        Asteraceae      35420 
#> # … with 50 more rows
…
